{
  "HOME": "Home",
  "HEADER": "Header",
  "Hero": "Hero",
  "MOVIES": "Movies",
  "SERIES": "Séries",
  "FILMS": "Filmes",
  "MY_LIST": "Minha lista",
  "SURROUNDING": "Envolvente",
  "EXCITING": "Empolgantes",
  "TO_WATCH": "Assistir",
  "KNOW_MORE": "Saiba mais"
}
